[
  {
    "name": "Joe Smith",
    "email": "jsmith@gmail.com",
    "age": 40,
    "admin": false
  },
  {
    "name": "Jen Ford",
    "email": "jford@gmail.com",
    "age": 45,
    "admin": true
  },
  {
    "name": "Joe Smith",
    "email": "jsmith1@gmail.com",
    "age": 40,
    "admin": false
  },
  {
    "name": "Jen Ford",
    "email": "jford1@gmail.com",
    "age": 45,
    "admin": true
  },
  {
    "name": "Joe Smith",
    "email": "jsmith2@gmail.com",
    "age": 40,
    "admin": false
  },
  {
    "name": "Jen Ford",
    "email": "jford2@gmail.com",
    "age": 45,
    "admin": true
  },
  {
    "name": "Joe Smith",
    "email": "jsmith3@gmail.com",
    "age": 40,
    "admin": false
  },
  {
    "name": "Jen Ford",
    "email": "jford3@gmail.com",
    "age": 45,
    "admin": true
  },
  {
    "name": "Joe Smith",
    "email": "jsmith4@gmail.com",
    "age": 40,
    "admin": false
  },
  {
    "name": "Jen Ford",
    "email": "jford4@gmail.com",
    "age": 45,
    "admin": true
  },
  {
    "name": "Joe Smith",
    "email": "jsmith5@gmail.com",
    "age": 40,
    "admin": false
  },
  {
    "name": "Jen Ford",
    "email": "jford5@gmail.com",
    "age": 45,
    "admin": true
  }
]
